{
	"compiler": {
		"version": "0.5.15+commit.6a57276f"
	},
	"language": "Solidity",
	"output": {
		"abi": [
			{
				"inputs": [],
				"payable": true,
				"stateMutability": "payable",
				"type": "constructor"
			},
			{
				"anonymous": false,
				"inputs": [
					{
						"indexed": false,
						"internalType": "string",
						"name": "message",
						"type": "string"
					}
				],
				"name": "LogMessage",
				"type": "event"
			},
			{
				"anonymous": false,
				"inputs": [
					{
						"indexed": false,
						"internalType": "uint256",
						"name": "message",
						"type": "uint256"
					}
				],
				"name": "LogMessage",
				"type": "event"
			},
			{
				"anonymous": false,
				"inputs": [
					{
						"indexed": false,
						"internalType": "uint256",
						"name": "queryId",
						"type": "uint256"
					}
				],
				"name": "LogRandomQueryCreated",
				"type": "event"
			},
			{
				"anonymous": false,
				"inputs": [
					{
						"indexed": false,
						"internalType": "uint256",
						"name": "randomNumber",
						"type": "uint256"
					}
				],
				"name": "generatedRandomNumber",
				"type": "event"
			},
			{
				"constant": true,
				"inputs": [
					{
						"internalType": "bytes32",
						"name": "",
						"type": "bytes32"
					}
				],
				"name": "callingMap",
				"outputs": [
					{
						"internalType": "contract IRNGReceiver",
						"name": "",
						"type": "address"
					}
				],
				"payable": false,
				"stateMutability": "view",
				"type": "function"
			},
			{
				"constant": false,
				"inputs": [],
				"name": "generateRandom",
				"outputs": [
					{
						"internalType": "bytes32",
						"name": "",
						"type": "bytes32"
					}
				],
				"payable": true,
				"stateMutability": "payable",
				"type": "function"
			},
			{
				"constant": true,
				"inputs": [],
				"name": "owner",
				"outputs": [
					{
						"internalType": "address",
						"name": "",
						"type": "address"
					}
				],
				"payable": false,
				"stateMutability": "view",
				"type": "function"
			},
			{
				"constant": true,
				"inputs": [],
				"name": "queryId",
				"outputs": [
					{
						"internalType": "uint256",
						"name": "",
						"type": "uint256"
					}
				],
				"payable": false,
				"stateMutability": "view",
				"type": "function"
			},
			{
				"constant": false,
				"inputs": [
					{
						"internalType": "uint256",
						"name": "_queryId",
						"type": "uint256"
					},
					{
						"internalType": "uint256",
						"name": "_random",
						"type": "uint256"
					}
				],
				"name": "randomReceived",
				"outputs": [],
				"payable": true,
				"stateMutability": "payable",
				"type": "function"
			},
			{
				"constant": false,
				"inputs": [
					{
						"internalType": "address",
						"name": "_owner",
						"type": "address"
					}
				],
				"name": "setOwner",
				"outputs": [],
				"payable": false,
				"stateMutability": "nonpayable",
				"type": "function"
			}
		],
		"devdoc": {
			"details": "Mock Random Number Generator Used for testing purposes only",
			"methods": {}
		},
		"userdoc": {
			"methods": {}
		}
	},
	"settings": {
		"compilationTarget": {
			"localhost/decentracraft-contracts/contracts/Utils/MockRNG.sol": "MockRNG"
		},
		"evmVersion": "istanbul",
		"libraries": {},
		"optimizer": {
			"enabled": true,
			"runs": 200
		},
		"remappings": []
	},
	"sources": {
		"localhost/decentracraft-contracts/contracts/Utils/IRNGReceiver.sol": {
			"keccak256": "0x0338ac9b24fc717e9cbee42c14e20672ebb15d7f875652759261f27e4bb5b061",
			"urls": [
				"bzz-raw://e0fe471ef495a4cfe9aa419e8c67e73168fb7485511f64281555cc707bfcd6ad",
				"dweb:/ipfs/QmbATnPk7vTzSH1vddLeMN8HwERA83RFW2RJxhPURMpr5H"
			]
		},
		"localhost/decentracraft-contracts/contracts/Utils/IRandomGenerator.sol": {
			"keccak256": "0x9a6364d562578126432d6713ad101128e92965b4b4478c0509464f7c86740c7c",
			"urls": [
				"bzz-raw://5d22df118a43b4ce142f4ebd015e29d77bcb2c826c9e08e8540f104f4fad0023",
				"dweb:/ipfs/QmdmxvS8mxXvpSzmKU5p7S5iAdSGgM5v8w4HCgT922rUUq"
			]
		},
		"localhost/decentracraft-contracts/contracts/Utils/MockRNG.sol": {
			"keccak256": "0x3748a55b67918e3b9b1708c7107af182793daa0a4a1bec1dbb2fadd4d3cce586",
			"urls": [
				"bzz-raw://62254a28b49c25b4a62f03951dc967a4e13183f35722c02e781f4973e01e3f09",
				"dweb:/ipfs/QmZd96Q4K2xKLUwjsMAiXk57nityHGKqqKedGdHnutRqp4"
			]
		},
		"localhost/decentracraft-contracts/contracts/Utils/Ownable.sol": {
			"keccak256": "0xa6a518b6ba2d81549712b31d163f5ab1b424b2f521388b35834742e4caae73e2",
			"urls": [
				"bzz-raw://00663b7c1276496f47959e8bec06eba4a4823fb76a6e82d2445bad82a5cc5bc9",
				"dweb:/ipfs/QmNVFZpmJ5ePXgjkSbGT5vtngefRJ9VEZsZnDKP3yXu3XQ"
			]
		}
	},
	"version": 1
}